\relax 
\providecommand\hyper@newdestlabel[2]{}
\catcode `"\active 
\providecommand\HyperFirstAtBeginDocument{\AtBeginDocument}
\HyperFirstAtBeginDocument{\ifx\hyper@anchor\@undefined
\global\let\oldcontentsline\contentsline
\gdef\contentsline#1#2#3#4{\oldcontentsline{#1}{#2}{#3}}
\global\let\oldnewlabel\newlabel
\gdef\newlabel#1#2{\newlabelxx{#1}#2}
\gdef\newlabelxx#1#2#3#4#5#6{\oldnewlabel{#1}{{#2}{#3}}}
\AtEndDocument{\ifx\hyper@anchor\@undefined
\let\contentsline\oldcontentsline
\let\newlabel\oldnewlabel
\fi}
\fi}
\global\let\hyper@last\relax 
\gdef\HyperFirstAtBeginDocument#1{#1}
\providecommand*\HyPL@Entry[1]{}
\HyPL@Entry{0<</S/D>>}
\select@language {english}
\@writefile{toc}{\select@language {english}}
\@writefile{lof}{\select@language {english}}
\@writefile{lot}{\select@language {english}}
\HyPL@Entry{1<</S/D>>}
\@writefile{toc}{\contentsline {section}{\numberline {1}Cluster Analysis: An Introduction}{5}{section.1}}
\@writefile{toc}{\contentsline {subsection}{\numberline {1.1}What Is Cluster Analysis?}{5}{subsection.1.1}}
\@writefile{toc}{\contentsline {subsection}{\numberline {1.2}Cluster Analysis: Applications}{5}{subsection.1.2}}
\@writefile{toc}{\contentsline {subsection}{\numberline {1.3}An Overview of Typical Clustering Methodologies}{5}{subsection.1.3}}
\@writefile{toc}{\contentsline {subsection}{\numberline {1.4}Recommended Readings}{6}{subsection.1.4}}
\@writefile{toc}{\contentsline {section}{\numberline {2}Similarity Measures for Cluster Analysis}{7}{section.2}}
\@writefile{toc}{\contentsline {subsection}{\numberline {2.1}Similarity, Dissimilarity, and Proximity}{7}{subsection.2.1}}
\@writefile{toc}{\contentsline {subsection}{\numberline {2.2}Distance on Numeric Data}{7}{subsection.2.2}}
\@writefile{toc}{\contentsline {subsubsection}{\numberline {2.2.1}Minkowski Distance}{7}{subsubsection.2.2.1}}
\@writefile{toc}{\contentsline {subsubsection}{\numberline {2.2.2}Special Cases of Minkowski Distance}{7}{subsubsection.2.2.2}}
\@writefile{toc}{\contentsline {subsection}{\numberline {2.3}Proximity Measure}{8}{subsection.2.3}}
\@writefile{toc}{\contentsline {subsubsection}{\numberline {2.3.1}Proximity Measure for Binary Attributes}{8}{subsubsection.2.3.1}}
\@writefile{toc}{\contentsline {subsubsection}{\numberline {2.3.2}Proximity Measure for Categorical Attributes}{8}{subsubsection.2.3.2}}
\@writefile{toc}{\contentsline {subsubsection}{\numberline {2.3.3}Proximity Measure for Ordinal Variables}{8}{subsubsection.2.3.3}}
\@writefile{toc}{\contentsline {subsubsection}{\numberline {2.3.4}Proximity Measure for Attributes of Mixed Type}{9}{subsubsection.2.3.4}}
\@writefile{toc}{\contentsline {subsubsection}{\numberline {2.3.5}Proximity Measure between Two Vectors: Cosine Similarity}{9}{subsubsection.2.3.5}}
\@writefile{toc}{\contentsline {subsection}{\numberline {2.4}Correlation Measures between Two Variables}{9}{subsection.2.4}}
\@writefile{toc}{\contentsline {subsubsection}{\numberline {2.4.1}Variance for Single Variable}{9}{subsubsection.2.4.1}}
\@writefile{toc}{\contentsline {subsubsection}{\numberline {2.4.2}Covariance for Two Variables}{10}{subsubsection.2.4.2}}
\@writefile{toc}{\contentsline {subsubsection}{\numberline {2.4.3}Correlation between Two Numerical Variables}{10}{subsubsection.2.4.3}}
\@writefile{toc}{\contentsline {subsubsection}{\numberline {2.4.4}Covariance Matrix}{10}{subsubsection.2.4.4}}
\@writefile{toc}{\contentsline {subsection}{\numberline {2.5}Recommended Readings}{10}{subsection.2.5}}
\@writefile{toc}{\contentsline {section}{\numberline {3}Partitioning-Based Clustering Methods}{11}{section.3}}
\@writefile{toc}{\contentsline {subsection}{\numberline {3.1}Basic Concepts of Partitioning Algorithms}{11}{subsection.3.1}}
\@writefile{toc}{\contentsline {subsection}{\numberline {3.2}The K-Means Clustering Method}{11}{subsection.3.2}}
\@writefile{lof}{\contentsline {figure}{\numberline {1}{\ignorespaces K-means Algorithm}}{11}{figure.1}}
\@writefile{loa}{\contentsline {algorithm}{\numberline {1}{\ignorespaces The K-means Algorithm}}{12}{algorithm.1}}
\@writefile{toc}{\contentsline {subsection}{\numberline {3.3}The K-Medoids Clustering Method}{12}{subsection.3.3}}
\@writefile{loa}{\contentsline {algorithm}{\numberline {2}{\ignorespaces The K-Medoids Algorithm}}{13}{algorithm.2}}
\@writefile{lof}{\contentsline {figure}{\numberline {2}{\ignorespaces K-medoids Algorithm}}{13}{figure.2}}
\@writefile{toc}{\contentsline {subsection}{\numberline {3.4}The K-Medians Clustering Method}{13}{subsection.3.4}}
\@writefile{toc}{\contentsline {subsection}{\numberline {3.5}The K-Modes Clustering Method}{13}{subsection.3.5}}
\@writefile{toc}{\contentsline {subsection}{\numberline {3.6}Kernel K-Means Clustering}{14}{subsection.3.6}}
\@writefile{lof}{\contentsline {figure}{\numberline {3}{\ignorespaces Kernel K-means Algorithm}}{14}{figure.3}}
\@writefile{toc}{\contentsline {subsection}{\numberline {3.7}Recommended Readings}{15}{subsection.3.7}}
\@writefile{toc}{\contentsline {section}{\numberline {4}Hierarchical Clustering Methods}{16}{section.4}}
\@writefile{toc}{\contentsline {subsection}{\numberline {4.1}Basic Concepts}{16}{subsection.4.1}}
\@writefile{toc}{\contentsline {subsubsection}{\numberline {4.1.1}Extensions to Hierarchical Clustering}{16}{subsubsection.4.1.1}}
\@writefile{toc}{\contentsline {subsection}{\numberline {4.2}Agglomerative Clustering Algorithms}{16}{subsection.4.2}}
\@writefile{toc}{\contentsline {subsection}{\numberline {4.3}Divisive Clustering Algorithms}{17}{subsection.4.3}}
\@writefile{toc}{\contentsline {subsection}{\numberline {4.4}BIRCH: A Micro-Clustering-Based Approach}{18}{subsection.4.4}}
\@writefile{toc}{\contentsline {subsubsection}{\numberline {4.4.1}Clustering feature}{18}{subsubsection.4.4.1}}
\@writefile{toc}{\contentsline {subsubsection}{\numberline {4.4.2}CF tree}{19}{subsubsection.4.4.2}}
\@writefile{toc}{\contentsline {subsection}{\numberline {4.5}CURE: Clustering Using Well-Scattered Representatives}{19}{subsection.4.5}}
\@writefile{toc}{\contentsline {subsection}{\numberline {4.6}CHAMELEON: Graph Partitioning on the KNN Graph of the Data}{20}{subsection.4.6}}
\@writefile{toc}{\contentsline {subsection}{\numberline {4.7}Probabilistic Hierarchical Clustering}{21}{subsection.4.7}}
\@writefile{toc}{\contentsline {subsubsection}{\numberline {4.7.1}Generative Model}{21}{subsubsection.4.7.1}}
\@writefile{toc}{\contentsline {subsection}{\numberline {4.8}A Probabilistic Hierarchical Clustering Algorithm }{22}{subsection.4.8}}
\@writefile{toc}{\contentsline {subsection}{\numberline {4.9}Recommended Readings}{22}{subsection.4.9}}
\@writefile{toc}{\contentsline {section}{\numberline {5}Density-Based and Grid-Based Clustering Methods}{23}{section.5}}
\@writefile{toc}{\contentsline {subsection}{\numberline {5.1}Basic Concepts of Density-Based Clustering}{23}{subsection.5.1}}
\@writefile{toc}{\contentsline {subsection}{\numberline {5.2}DBSCAN: A Density-Based Clustering Algorithm}{23}{subsection.5.2}}
\@writefile{lof}{\contentsline {figure}{\numberline {4}{\ignorespaces DBSCAN}}{23}{figure.4}}
\@writefile{toc}{\contentsline {subsubsection}{\numberline {5.2.1}Definitions}{24}{subsubsection.5.2.1}}
\@writefile{toc}{\contentsline {subsubsection}{\numberline {5.2.2}The Algorithm}{24}{subsubsection.5.2.2}}
\@writefile{lof}{\contentsline {figure}{\numberline {5}{\ignorespaces DBSCAN Is Sensitive to the Setting of Parameters}}{24}{figure.5}}
\@writefile{toc}{\contentsline {subsection}{\numberline {5.3}OPTICS: Ordering Points To Identify Clustering Structure}{25}{subsection.5.3}}
\@writefile{toc}{\contentsline {subsubsection}{\numberline {5.3.1}The Algorithm}{25}{subsubsection.5.3.1}}
\@writefile{toc}{\contentsline {subsection}{\numberline {5.4}Grid-Based Clustering Methods}{26}{subsection.5.4}}
\@writefile{toc}{\contentsline {subsection}{\numberline {5.5}STING: A Statistical Information Grid Approach}{26}{subsection.5.5}}
\@writefile{toc}{\contentsline {subsection}{\numberline {5.6}CLIQUE: Grid-Based Subspace Clustering}{27}{subsection.5.6}}
\@writefile{lof}{\contentsline {figure}{\numberline {6}{\ignorespaces CLIQUE}}{27}{figure.6}}
\@writefile{toc}{\contentsline {subsubsection}{\numberline {5.6.1}Major Steps of the CLIQUE Algorithm}{27}{subsubsection.5.6.1}}
\@writefile{toc}{\contentsline {subsubsection}{\numberline {5.6.2}Additional Comments on CLIQUE}{28}{subsubsection.5.6.2}}
\@writefile{toc}{\contentsline {subsection}{\numberline {5.7}Recommended Readings}{28}{subsection.5.7}}
\@writefile{toc}{\contentsline {section}{\numberline {6}Probabilistic Model-Based Clustering Methods}{29}{section.6}}
\@writefile{toc}{\contentsline {subsection}{\numberline {6.1}Basic Concepts of Probabilistic Model-Based Clustering}{29}{subsection.6.1}}
\@writefile{toc}{\contentsline {subsubsection}{\numberline {6.1.1}Typical Probabilistic Model-Based Clustering Methods}{29}{subsubsection.6.1.1}}
\@writefile{toc}{\contentsline {subsection}{\numberline {6.2}Mixture Model for Cluster Analysis}{30}{subsection.6.2}}
\@writefile{toc}{\contentsline {subsubsection}{\numberline {6.2.1}Model-Based Clustering}{30}{subsubsection.6.2.1}}
\@writefile{toc}{\contentsline {subsection}{\numberline {6.3}Gaussian Mixture Models}{30}{subsection.6.3}}
\@writefile{toc}{\contentsline {subsubsection}{\numberline {6.3.1}Maximum Likelihood Estimation of Gaussian Mixture Model}{31}{subsubsection.6.3.1}}
\@writefile{toc}{\contentsline {subsection}{\numberline {6.4}The Expectation-Maximization (EM) Algorithm (Univariate)}{31}{subsection.6.4}}
\@writefile{toc}{\contentsline {subsubsection}{\numberline {6.4.1}The Expectation-Maximization Framework for K-Means and EM}{31}{subsubsection.6.4.1}}
\@writefile{toc}{\contentsline {subsubsection}{\numberline {6.4.2}Expectation-Maximization for One Dimension (Univariate)}{32}{subsubsection.6.4.2}}
\@writefile{toc}{\contentsline {subsection}{\numberline {6.5}The Expectation-Maximization (EM) Algorithm (Multivariate)}{32}{subsection.6.5}}
\@writefile{lof}{\contentsline {figure}{\numberline {7}{\ignorespaces The execution of the EM algorithm for a two-dimensional data set}}{33}{figure.7}}
\@writefile{toc}{\contentsline {subsection}{\numberline {6.6}Analysis of the Mixture Model Methods}{33}{subsection.6.6}}
\@writefile{toc}{\contentsline {subsubsection}{\numberline {6.6.1}K-Means Can Be Considered as a Special Case of EM}{33}{subsubsection.6.6.1}}
\@writefile{toc}{\contentsline {subsubsection}{\numberline {6.6.2}Initialization and Speed-Up of Expectation-Maximization}{34}{subsubsection.6.6.2}}
\@writefile{toc}{\contentsline {subsubsection}{\numberline {6.6.3}Strengths and Weaknesses of Mixture Models}{34}{subsubsection.6.6.3}}
\@writefile{toc}{\contentsline {subsection}{\numberline {6.7}Recommended Readings}{35}{subsection.6.7}}
\@writefile{toc}{\contentsline {section}{\numberline {7}Methods for Clustering Validation}{36}{section.7}}
\@writefile{toc}{\contentsline {subsection}{\numberline {7.1}Clustering Validation and Assessment}{36}{subsection.7.1}}
\@writefile{toc}{\contentsline {subsection}{\numberline {7.2}Measuring Clustering Quality}{36}{subsection.7.2}}
\@writefile{toc}{\contentsline {subsection}{\numberline {7.3}External Measures for Clustering Validation}{36}{subsection.7.3}}
\@writefile{toc}{\contentsline {subsubsection}{\numberline {7.3.1}Commonly Used External Measures}{36}{subsubsection.7.3.1}}
\@writefile{toc}{\contentsline {subsection}{\numberline {7.4}External Measures}{37}{subsection.7.4}}
\@writefile{toc}{\contentsline {subsubsection}{\numberline {7.4.1}Purity}{37}{subsubsection.7.4.1}}
\@writefile{toc}{\contentsline {subsubsection}{\numberline {7.4.2}Maximum matching}{37}{subsubsection.7.4.2}}
\@writefile{toc}{\contentsline {subsubsection}{\numberline {7.4.3}F-Measure}{37}{subsubsection.7.4.3}}
\@writefile{toc}{\contentsline {subsubsection}{\numberline {7.4.4}Conditional Entropy}{38}{subsubsection.7.4.4}}
\@writefile{toc}{\contentsline {subsubsection}{\numberline {7.4.5}Normalized Mutual Information (NMI)}{38}{subsubsection.7.4.5}}
\@writefile{toc}{\contentsline {subsubsection}{\numberline {7.4.6}Pairwise Measures}{38}{subsubsection.7.4.6}}
\@writefile{toc}{\contentsline {subsection}{\numberline {7.5}Internal Measures for Clustering Validation}{39}{subsection.7.5}}
\@writefile{toc}{\contentsline {subsection}{\numberline {7.6}Relative Measures}{40}{subsection.7.6}}
\@writefile{toc}{\contentsline {subsubsection}{\numberline {7.6.1}Silhouette coefficient}{40}{subsubsection.7.6.1}}
\@writefile{toc}{\contentsline {subsection}{\numberline {7.7}Cluster Stability}{40}{subsection.7.7}}
\@writefile{toc}{\contentsline {subsubsection}{\numberline {7.7.1}Other Methods for Finding the Number of Clusters}{41}{subsubsection.7.7.1}}
\@writefile{toc}{\contentsline {subsection}{\numberline {7.8}Clustering Tendency}{41}{subsection.7.8}}
\@writefile{toc}{\contentsline {subsubsection}{\numberline {7.8.1}Testing Clustering Tendency: A Spatial Histogram Approach}{41}{subsubsection.7.8.1}}
\@writefile{toc}{\contentsline {subsection}{\numberline {7.9}Recommended Readings}{42}{subsection.7.9}}
\@writefile{toc}{\contentsline {section}{\numberline {8}Clustering High-Dimensional Data}{43}{section.8}}
\@writefile{toc}{\contentsline {subsection}{\numberline {8.1}Introduction to High-Dimensional Clustering}{43}{subsection.8.1}}
\@writefile{toc}{\contentsline {subsubsection}{\numberline {8.1.1}Challenges of Clustering High-Dimensional Data}{43}{subsubsection.8.1.1}}
\@writefile{toc}{\contentsline {subsubsection}{\numberline {8.1.2}Methods for Clustering High-Dimensional Data}{43}{subsubsection.8.1.2}}
\@writefile{toc}{\contentsline {subsubsection}{\numberline {8.1.3}Subspace Clustering Methods}{43}{subsubsection.8.1.3}}
\@writefile{toc}{\contentsline {subsection}{\numberline {8.2}Subspace Clustering}{44}{subsection.8.2}}
\@writefile{toc}{\contentsline {subsubsection}{\numberline {8.2.1}Subspace Search Methods}{44}{subsubsection.8.2.1}}
\@writefile{toc}{\contentsline {subsubsection}{\numberline {8.2.2}Correlation-Based Methods}{44}{subsubsection.8.2.2}}
\@writefile{lof}{\contentsline {figure}{\numberline {8}{\ignorespaces PCA of a multivariate Gaussian distribution}}{45}{figure.8}}
\@writefile{toc}{\contentsline {subsubsection}{\numberline {8.2.3}Bi-Clustering Methods}{45}{subsubsection.8.2.3}}
\@writefile{toc}{\contentsline {subsubsection}{\numberline {8.2.4}δ-Bi-clustering}{46}{subsubsection.8.2.4}}
\@writefile{toc}{\contentsline {subsubsection}{\numberline {8.2.5}δ-pClustering}{47}{subsubsection.8.2.5}}
\@writefile{toc}{\contentsline {subsection}{\numberline {8.3}Dimensionality Reduction Methods}{47}{subsection.8.3}}
\@writefile{toc}{\contentsline {subsubsection}{\numberline {8.3.1}Clustering by Nonnegative Matrix Factorization (NMF)}{48}{subsubsection.8.3.1}}
\@writefile{toc}{\contentsline {subsection}{\numberline {8.4}Recommended Readings}{48}{subsection.8.4}}
\@writefile{toc}{\contentsline {section}{\numberline {9}Constraint-Based Clustering}{49}{section.9}}
\@writefile{toc}{\contentsline {subsection}{\numberline {9.1}Categories of Constraints}{49}{subsection.9.1}}
\@writefile{toc}{\contentsline {subsection}{\numberline {9.2}Handling Hard Constraints}{49}{subsection.9.2}}
\@writefile{toc}{\contentsline {subsection}{\numberline {9.3}Handling Soft Constraints}{49}{subsection.9.3}}
\@writefile{toc}{\contentsline {subsection}{\numberline {9.4}Constraints on Distance Measures}{50}{subsection.9.4}}
\@writefile{lof}{\contentsline {figure}{\numberline {9}{\ignorespaces Compare clustering results}}{50}{figure.9}}
\@writefile{toc}{\contentsline {subsection}{\numberline {9.5}User-Guided Clustering: Taking User’s Hints as Constraints}{50}{subsection.9.5}}
\@writefile{toc}{\contentsline {subsection}{\numberline {9.6}Recommended Readings}{51}{subsection.9.6}}
\@writefile{toc}{\contentsline {section}{\numberline {10}Clustering Graphs and Networked Data}{52}{section.10}}
\@writefile{toc}{\contentsline {subsection}{\numberline {10.1}Graphs, Networks, and Their Representations}{52}{subsection.10.1}}
\@writefile{toc}{\contentsline {subsection}{\numberline {10.2}Typical Evaluation Measures}{52}{subsection.10.2}}
\@writefile{toc}{\contentsline {subsubsection}{\numberline {10.2.1}Minimum cut}{52}{subsubsection.10.2.1}}
\@writefile{toc}{\contentsline {subsubsection}{\numberline {10.2.2}Ratio cut}{53}{subsubsection.10.2.2}}
\@writefile{toc}{\contentsline {subsubsection}{\numberline {10.2.3}Normalized cut}{53}{subsubsection.10.2.3}}
\@writefile{toc}{\contentsline {subsubsection}{\numberline {10.2.4}Conductance}{53}{subsubsection.10.2.4}}
\@writefile{toc}{\contentsline {subsubsection}{\numberline {10.2.5}Modularity}{53}{subsubsection.10.2.5}}
\@writefile{toc}{\contentsline {subsection}{\numberline {10.3}SimRank: Similarity Based on Random Walk and Structural Context}{53}{subsection.10.3}}
\@writefile{toc}{\contentsline {subsection}{\numberline {10.4}Spectral Clustering}{54}{subsection.10.4}}
\@writefile{toc}{\contentsline {subsubsection}{\numberline {10.4.1}Matrix Representations of a Graph}{54}{subsubsection.10.4.1}}
\@writefile{lof}{\contentsline {figure}{\numberline {10}{\ignorespaces Matrix Representations of a Graph}}{54}{figure.10}}
\@writefile{toc}{\contentsline {subsubsection}{\numberline {10.4.2}Eigenvalue and Eigenvector of Graph Laplacian}{54}{subsubsection.10.4.2}}
\@writefile{lof}{\contentsline {figure}{\numberline {11}{\ignorespaces Graph connectivity}}{55}{figure.11}}
\@writefile{toc}{\contentsline {subsubsection}{\numberline {10.4.3}Bi-Partitioning via Spectral Methods}{55}{subsubsection.10.4.3}}
\@writefile{toc}{\contentsline {subsubsection}{\numberline {10.4.4}Extension to k partitions}{56}{subsubsection.10.4.4}}
\@writefile{toc}{\contentsline {subsection}{\numberline {10.5}SCAN: Density-Based Clustering of Networks}{56}{subsection.10.5}}
\@writefile{lof}{\contentsline {figure}{\numberline {12}{\ignorespaces Cliques, hubs, and outliers}}{56}{figure.12}}
\@writefile{toc}{\contentsline {subsubsection}{\numberline {10.5.1}Structural Connectivity}{57}{subsubsection.10.5.1}}
\@writefile{toc}{\contentsline {subsubsection}{\numberline {10.5.2}Structure-Connected Clusters}{57}{subsubsection.10.5.2}}
\@writefile{toc}{\contentsline {subsection}{\numberline {10.6}Recommended Readings}{58}{subsection.10.6}}
\@writefile{toc}{\contentsline {section}{\numberline {11}Cluster Analysis in Heterogeneous Networks}{59}{section.11}}
\@writefile{toc}{\contentsline {subsection}{\numberline {11.1}Heterogeneous Information Networks}{59}{subsection.11.1}}
\@writefile{toc}{\contentsline {subsection}{\numberline {11.2}RankClus: Integrated Clustering and Ranking in Heterogeneous Networks}{59}{subsection.11.2}}
\@writefile{toc}{\contentsline {subsubsection}{\numberline {11.2.1}A Bi-Typed Network Model and Simple Ranking}{59}{subsubsection.11.2.1}}
\@writefile{toc}{\contentsline {subsubsection}{\numberline {11.2.2}Authority Ranking}{60}{subsubsection.11.2.2}}
\@writefile{toc}{\contentsline {subsubsection}{\numberline {11.2.3}The RankClus algorithm}{60}{subsubsection.11.2.3}}
\@writefile{toc}{\contentsline {subsection}{\numberline {11.3}NetClus: Ranking-Based Clustering with Star Network Schema}{61}{subsection.11.3}}
\@writefile{toc}{\contentsline {subsection}{\numberline {11.4}PathSim: Path-Based Similarity Measure for Heterogeneous Networks}{61}{subsection.11.4}}
\@writefile{toc}{\contentsline {subsubsection}{\numberline {11.4.1}Popular Similarity Measures for Networks}{61}{subsubsection.11.4.1}}
\@writefile{toc}{\contentsline {subsection}{\numberline {11.5}User Guided Meta-Path Selection for Clustering in Heterogeneous Networks}{61}{subsection.11.5}}
\@writefile{toc}{\contentsline {subsection}{\numberline {11.6}Recommended Readings}{62}{subsection.11.6}}
\@writefile{toc}{\contentsline {section}{\numberline {12}Advanced Topics and Applications}{63}{section.12}}
\@writefile{toc}{\contentsline {subsection}{\numberline {12.1}Clustering Data Streams: A K-Median-Based Approach}{63}{subsection.12.1}}
\@writefile{toc}{\contentsline {subsection}{\numberline {12.2}Clustering Data Streams: The CluStream Approach}{63}{subsection.12.2}}
\@writefile{toc}{\contentsline {subsection}{\numberline {12.3}Ensemble Clustering}{64}{subsection.12.3}}
\@writefile{toc}{\contentsline {subsection}{\numberline {12.4}Recommended Readings}{64}{subsection.12.4}}
