\select@language {russian}
\contentsline {chapter}{Введение}{2}{chapter*.2}
\contentsline {chapter}{\numberline {1.}Правовое регулирование потребительского кредитования}{6}{chapter.1}
\contentsline {section}{\numberline {1.1.}Понятие потребительского кредита}{7}{section.1.1}
\contentsline {section}{\numberline {1.2.}Законодательные акты в сфере потребительского кредитования}{10}{section.1.2}
\contentsline {section}{\numberline {1.3.}Анализ проекта Федерального закона «О потребительском кредитовании»}{16}{section.1.3}
\contentsline {chapter}{\numberline {2.}Анализ рынка потребительского кредитования}{21}{chapter.2}
\contentsline {section}{\numberline {2.1.}Динамика развития рынка потребительского кредитования}{24}{section.2.1}
\contentsline {subsection}{\numberline {2.1.1.}Лидеры рынка потребительского кредитования}{26}{subsection.2.1.1}
\contentsline {subsection}{\numberline {2.1.2.}POS-кредиты}{28}{subsection.2.1.2}
\contentsline {subsection}{\numberline {2.1.3.}Кредитные карты}{30}{subsection.2.1.3}
\contentsline {subsection}{\numberline {2.1.4.}Автокредиты}{32}{subsection.2.1.4}
\contentsline {subsection}{\numberline {2.1.5.}Ипотека}{33}{subsection.2.1.5}
\contentsline {section}{\numberline {2.2.}Оценка состояния рынка потребительского кредитования}{35}{section.2.2}
\contentsline {section}{\numberline {2.3.}Меры Банка России по охлаждению рынка потребкредитования}{45}{section.2.3}
\contentsline {chapter}{\numberline {3.}Банк «Русский стандарт» на рынке потребительского кредитования}{53}{chapter.3}
\contentsline {section}{\numberline {3.1.}Банк «Русский стандарт»: историческая справка}{53}{section.3.1}
\contentsline {section}{\numberline {3.2.}Характеристики бизнеса банка «Русский стандарт»}{55}{section.3.2}
\contentsline {section}{\numberline {3.3.}Анализ рисков банка «Русский стандарт»}{61}{section.3.3}
\contentsline {section}{\numberline {3.4.}Меры по снижению выявленных рисков}{65}{section.3.4}
\contentsline {chapter}{Заключение}{69}{chapter*.37}
\contentsline {chapter}{Список литературы}{74}{section*.38}
\select@language {russian}
\select@language {russian}
\select@language {russian}
\select@language {russian}
\select@language {russian}
\select@language {russian}
\select@language {russian}
\select@language {russian}
\select@language {russian}
\select@language {russian}
\select@language {russian}
\select@language {russian}
\select@language {russian}
\select@language {russian}
\select@language {russian}
\select@language {russian}
\select@language {russian}
\select@language {russian}
\select@language {russian}
\select@language {russian}
\select@language {russian}
\select@language {russian}
\select@language {russian}
\select@language {russian}
\select@language {russian}
\select@language {russian}
\select@language {russian}
\select@language {russian}
\select@language {russian}
\select@language {russian}
\select@language {russian}
\select@language {russian}
\select@language {russian}
\select@language {russian}
\select@language {russian}
\select@language {russian}
\select@language {russian}
\select@language {russian}
\select@language {russian}
\select@language {russian}
\select@language {russian}
\select@language {russian}
\select@language {russian}
\select@language {russian}
\select@language {russian}
\select@language {russian}
\select@language {russian}
\select@language {russian}
\select@language {russian}
\select@language {russian}
\select@language {russian}
\select@language {russian}
\select@language {russian}
\select@language {russian}
\select@language {russian}
\select@language {russian}
\select@language {russian}
\select@language {russian}
\select@language {russian}
\select@language {russian}
\select@language {russian}
\select@language {russian}
\select@language {russian}
\select@language {russian}
\select@language {russian}
\select@language {russian}
\select@language {russian}
\select@language {russian}
\select@language {russian}
\select@language {russian}
\select@language {russian}
\select@language {russian}
\select@language {russian}
\select@language {russian}
\select@language {russian}
\select@language {russian}
\select@language {russian}
\select@language {russian}
\select@language {russian}
\select@language {russian}
\select@language {russian}
\select@language {russian}
\select@language {russian}
\select@language {russian}
\select@language {russian}
\select@language {russian}
\select@language {russian}
\select@language {russian}
\select@language {russian}
\select@language {russian}
\select@language {russian}
\select@language {russian}
\select@language {russian}
\select@language {russian}
\select@language {russian}
\select@language {russian}
\select@language {russian}
\select@language {russian}
\select@language {russian}
\select@language {russian}
\select@language {russian}
\select@language {russian}
\select@language {russian}
\select@language {russian}
\select@language {russian}
\select@language {russian}
\select@language {russian}
\select@language {russian}
\select@language {russian}
\select@language {russian}
\select@language {russian}
\select@language {russian}
\select@language {russian}
\select@language {russian}
\contentsline {chapter}{Приложения}{81}{appendix*.40}
\contentsline {section}{\numberline {1.}Рейтинг банков по размеру портфеля кредитов физическим лицам}{81}{section.Alph0.1}
\contentsline {section}{\numberline {2.}Показатели роста портфеля кредитных карт по основным участникам рынка}{82}{section.Alph0.2}
