\relax 
\providecommand\hyper@newdestlabel[2]{}
\providecommand\HyperFirstAtBeginDocument{\AtBeginDocument}
\HyperFirstAtBeginDocument{\ifx\hyper@anchor\@undefined
\global\let\oldcontentsline\contentsline
\gdef\contentsline#1#2#3#4{\oldcontentsline{#1}{#2}{#3}}
\global\let\oldnewlabel\newlabel
\gdef\newlabel#1#2{\newlabelxx{#1}#2}
\gdef\newlabelxx#1#2#3#4#5#6{\oldnewlabel{#1}{{#2}{#3}}}
\AtEndDocument{\ifx\hyper@anchor\@undefined
\let\contentsline\oldcontentsline
\let\newlabel\oldnewlabel
\fi}
\fi}
\global\let\hyper@last\relax 
\gdef\HyperFirstAtBeginDocument#1{#1}
\providecommand*\HyPL@Entry[1]{}
\catcode `"\active 
\bibstyle{ugost2008s}
\HyPL@Entry{0<</S/D>>}
\select@language {russian}
\@writefile{toc}{\select@language {russian}}
\@writefile{lof}{\select@language {russian}}
\@writefile{lot}{\select@language {russian}}
\HyPL@Entry{1<</S/D>>}
\citation{assoc_reg}
\@writefile{toc}{\contentsline {chapter}{Введение}{2}{chapter*.2}}
\citation{lavrushin}
\citation{rol_kredita}
\citation{kulikov}
\citation{cb_fin_stable}
\citation{cbr_ru}
\citation{banki_ru}
\citation{tks_card}
\citation{expert_bank}
\citation{expert_potreb}
\citation{rg_cb}
\citation{rg_rost}
\citation{slon_cb}
\citation{assoc_reg}
\citation{assoc_reg}
\citation{law_clarification}
\@writefile{toc}{\contentsline {chapter}{\numberline {1.}Правовое регулирование потребительского кредитования}{6}{chapter.1}}
\citation{bd_market}
\citation{assoc_reg}
\citation{law_bank}
\citation{law_bki}
\citation{law_prav_potreb}
\citation{sinki}
\@writefile{toc}{\contentsline {section}{\numberline {1.1.}Понятие потребительского кредита}{7}{section.1.1}}
\citation{lavrushin}
\citation{kulikov}
\citation{lavrushin}
\citation{potreb_pravo}
\citation{potreb_pravo}
\citation{bb_dogovor}
\citation{rol_kredita}
\citation{rol_kredita}
\pp@pagectr{footnote}{1}{10}{9}
\citation{law_potreb}
\citation{assoc_reg}
\citation{banki_law_2013}
\@writefile{toc}{\contentsline {section}{\numberline {1.2.}Законодательные акты в сфере потребительского кредитования}{10}{section.1.2}}
\citation{bd_market}
\citation{assoc_reg}
\citation{law_clarification}
\citation{law_bank}
\citation{law_bankrot}
\citation{pravo_bankrot}
\citation{bd_berezina}
\citation{pravo_bankrot}
\citation{ved_bankrot}
\citation{ved_bankrot}
\citation{bd_berezina}
\citation{law_ombudsman}
\pp@pagectr{footnote}{2}{15}{14}
\citation{gazeta_ombudsman}
\citation{banki_law_2013}
\citation{law_potreb}
\citation{law_potreb}
\@writefile{toc}{\contentsline {section}{\numberline {1.3.}Анализ проекта Федерального закона «О потребительском кредитовании»}{16}{section.1.3}}
\pp@pagectr{footnote}{3}{17}{16}
\citation{kred_doveria}
\citation{komm_cold}
\citation{bo_law}
\citation{expert_potreb}
\citation{bd_berezina}
\@writefile{toc}{\contentsline {chapter}{\numberline {2.}Анализ рынка потребительского кредитования}{21}{chapter.2}}
\pp@pagectr{footnote}{4}{22}{21}
\citation{komm_kredit}
\citation{rol_kredita}
\citation{bd_berezina}
\citation{bd_berezina}
\@writefile{lof}{\contentsline {figure}{\numberline {1}{\ignorespaces Кредиты физическим лицам\footnotemark \relax }}{22}{figure.caption.3}}
\pp@pagectr{footnote}{5}{23}{22}
\providecommand*\caption@xref[2]{\@setref\relax\@undefined{#1}}
\newlabel{komm_rost}{{1}{22}{Кредиты физическим лицам\protect \footnotemark \relax }{figure.caption.3}{}}
\citation{expert_bank}
\citation{bo_nbki_expert}
\@writefile{lof}{\contentsline {figure}{\numberline {2}{\ignorespaces Розничное кредитование останется лидером по темпам роста, однако его динамика в 2013~году заметно снизится\footnotemark \relax }}{23}{figure.caption.4}}
\pp@pagectr{footnote}{6}{24}{23}
\newlabel{ra_prirost}{{2}{23}{Розничное кредитование останется лидером по темпам роста, однако его динамика в 2013~году заметно снизится\protect \footnotemark \relax }{figure.caption.4}{}}
\citation{bd_berezina}
\citation{bo_nbki}
\@writefile{toc}{\contentsline {section}{\numberline {2.1.}Динамика развития рынка потребительского кредитования}{24}{section.2.1}}
\citation{bo_nbki}
\citation{bd_berezina}
\@writefile{lof}{\contentsline {figure}{\numberline {3}{\ignorespaces Суммарный объем действующих потребительских кредитов\footnotemark \relax }}{25}{figure.caption.5}}
\pp@pagectr{footnote}{7}{26}{25}
\newlabel{bo_portfolio_rost}{{3}{25}{Суммарный объем действующих потребительских кредитов\protect \footnotemark \relax }{figure.caption.5}{}}
\@writefile{lof}{\contentsline {figure}{\numberline {4}{\ignorespaces Прирост портфеля потребительских кредитов\footnotemark \relax }}{25}{figure.caption.6}}
\pp@pagectr{footnote}{8}{26}{25}
\newlabel{bo_portfolio_prirost}{{4}{25}{Прирост портфеля потребительских кредитов\protect \footnotemark \relax }{figure.caption.6}{}}
\citation{rg_cb}
\citation{rg_cb}
\citation{banki_gigant}
\@writefile{lof}{\contentsline {figure}{\numberline {5}{\ignorespaces Структура действующих кредитов населению}}{26}{figure.caption.7}}
\pp@pagectr{footnote}{9}{27}{26}
\newlabel{rg_struktura}{{5}{26}{Структура действующих кредитов населению}{figure.caption.7}{}}
\@writefile{toc}{\contentsline {subsection}{\numberline {2.1.1.}Лидеры рынка потребительского кредитования}{26}{subsection.2.1.1}}
\citation{expert_potreb}
\citation{banki_gigant}
\citation{komm_pos}
\citation{bo_pos}
\citation{bo_pos}
\@writefile{toc}{\contentsline {subsection}{\numberline {2.1.2.}POS-кредиты}{28}{subsection.2.1.2}}
\citation{ved_pos}
\@writefile{lot}{\contentsline {table}{\numberline {1}{\ignorespaces Лидеры рынка POS-кредитования\footnotemark \relax }}{29}{table.caption.8}}
\pp@pagectr{footnote}{10}{30}{29}
\newlabel{ved_pos_leader}{{1}{29}{Лидеры рынка POS-кредитования\protect \footnotemark \relax }{table.caption.8}{}}
\citation{tks_card}
\citation{tks_card}
\@writefile{toc}{\contentsline {subsection}{\numberline {2.1.3.}Кредитные карты}{30}{subsection.2.1.3}}
\@writefile{lof}{\contentsline {figure}{\numberline {6}{\ignorespaces Объем рынка кредитных карт, млрд рублей\footnotemark \relax }}{30}{figure.caption.9}}
\pp@pagectr{footnote}{11}{31}{30}
\newlabel{tks_volumes}{{6}{30}{Объем рынка кредитных карт, млрд рублей\protect \footnotemark \relax }{figure.caption.9}{}}
\citation{tks_card}
\citation{tks_card}
\citation{br_tend}
\@writefile{lof}{\contentsline {figure}{\numberline {7}{\ignorespaces Динамика крупнейших игроков на рынке кредитных карт, млрд рублей\footnotemark \relax }}{31}{figure.caption.10}}
\pp@pagectr{footnote}{12}{32}{31}
\newlabel{tks_dinamika}{{7}{31}{Динамика крупнейших игроков на рынке кредитных карт, млрд рублей\protect \footnotemark \relax }{figure.caption.10}{}}
\@writefile{lof}{\contentsline {figure}{\numberline {8}{\ignorespaces Изменение позиций крупнейших игроков на рынке кредитных карт\footnotemark \relax }}{31}{figure.caption.11}}
\pp@pagectr{footnote}{13}{32}{31}
\newlabel{tks_position}{{8}{31}{Изменение позиций крупнейших игроков на рынке кредитных карт\protect \footnotemark \relax }{figure.caption.11}{}}
\citation{tks_card}
\citation{bd_berezina}
\@writefile{lof}{\contentsline {figure}{\numberline {9}{\ignorespaces Доли банков на рынке кредитных карт по состоянию на 1 июля 2013 г.\footnotemark \relax }}{32}{figure.caption.12}}
\pp@pagectr{footnote}{14}{33}{32}
\newlabel{tks_doli}{{9}{32}{Доли банков на рынке кредитных карт по состоянию на 1 июля 2013 г.\protect \footnotemark \relax }{figure.caption.12}{}}
\@writefile{toc}{\contentsline {subsection}{\numberline {2.1.4.}Автокредиты}{32}{subsection.2.1.4}}
\citation{br_tend}
\citation{ved_auto}
\citation{rg_ipoteka}
\@writefile{lof}{\contentsline {figure}{\numberline {10}{\ignorespaces Топ-10 банков на рынке автокредитования на 1~марта 2013~года\footnotemark \relax }}{33}{figure.caption.13}}
\pp@pagectr{footnote}{15}{34}{33}
\newlabel{ved_auto}{{10}{33}{Топ-10 банков на рынке автокредитования на 1~марта 2013~года\protect \footnotemark \relax }{figure.caption.13}{}}
\@writefile{toc}{\contentsline {subsection}{\numberline {2.1.5.}Ипотека}{33}{subsection.2.1.5}}
\citation{rbc_ipoteka}
\citation{rbc_ipoteka}
\citation{rg_ipoteka}
\citation{br_tend}
\@writefile{lot}{\contentsline {table}{\numberline {2}{\ignorespaces Топ-10 банков по выдаче ипотечных кредитов в 2012~году\footnotemark \relax }}{34}{table.caption.14}}
\pp@pagectr{footnote}{16}{35}{34}
\newlabel{rbc_ipoteka}{{2}{34}{Топ-10 банков по выдаче ипотечных кредитов в 2012~году\protect \footnotemark \relax }{table.caption.14}{}}
\citation{rg_ipoteka}
\citation{bd_berezina}
\@writefile{lof}{\contentsline {figure}{\numberline {11}{\ignorespaces Динамика средневзвешенной ставки по ипотеке\footnotemark \relax }}{35}{figure.caption.15}}
\pp@pagectr{footnote}{17}{36}{35}
\newlabel{rg_ipoteka_rate}{{11}{35}{Динамика средневзвешенной ставки по ипотеке\protect \footnotemark \relax }{figure.caption.15}{}}
\@writefile{toc}{\contentsline {section}{\numberline {2.2.}Оценка состояния рынка потребительского кредитования}{35}{section.2.2}}
\citation{expert_potreb}
\citation{rg_cb}
\citation{cbr_ru}
\citation{expert_procent}
\citation{ved_gabon}
\citation{komm_kredit}
\@writefile{lot}{\contentsline {table}{\numberline {3}{\ignorespaces Рентабельность розничных банков\footnotemark \relax }}{38}{table.caption.16}}
\pp@pagectr{footnote}{18}{39}{38}
\newlabel{ROA_ROE}{{3}{38}{Рентабельность розничных банков\protect \footnotemark \relax }{table.caption.16}{}}
\citation{assoc_reg}
\citation{komm_kredit}
\@writefile{lof}{\contentsline {figure}{\numberline {12}{\ignorespaces Средневзвешенная ставка по кредитам в рублях до 1 года\footnotemark \relax }}{39}{figure.caption.17}}
\pp@pagectr{footnote}{19}{40}{39}
\newlabel{komm_stavki}{{12}{39}{Средневзвешенная ставка по кредитам в рублях до 1 года\protect \footnotemark \relax }{figure.caption.17}{}}
\citation{rol_kredita}
\citation{expert_procent}
\@writefile{lof}{\contentsline {figure}{\numberline {13}{\ignorespaces Соотношение выданных кредитов с макроэкономическими показателями\footnotemark \relax }}{40}{figure.caption.18}}
\pp@pagectr{footnote}{20}{41}{40}
\newlabel{komm_rozn}{{13}{40}{Соотношение выданных кредитов с макроэкономическими показателями\protect \footnotemark \relax }{figure.caption.18}{}}
\citation{bd_berezina}
\citation{ved_svaznoy}
\citation{finmarket_alpha}
\citation{komm_kredit}
\@writefile{lof}{\contentsline {figure}{\numberline {14}{\ignorespaces Отношение задолженности физлиц к доходам\footnotemark \relax }}{41}{figure.caption.19}}
\pp@pagectr{footnote}{21}{42}{41}
\newlabel{expert_dolg_doxod}{{14}{41}{Отношение задолженности физлиц к доходам\protect \footnotemark \relax }{figure.caption.19}{}}
\citation{ved_svaznoy}
\citation{ved_svaznoy}
\@writefile{lof}{\contentsline {figure}{\numberline {15}{\ignorespaces Распределение по количеству активных кредитов\footnotemark \relax }}{42}{figure.caption.20}}
\pp@pagectr{footnote}{22}{43}{42}
\newlabel{ved_kol_kred}{{15}{42}{Распределение по количеству активных кредитов\protect \footnotemark \relax }{figure.caption.20}{}}
\citation{komm_kredit}
\citation{rg_rost}
\@writefile{lof}{\contentsline {figure}{\numberline {16}{\ignorespaces Просроченная задолженность физических лиц\footnotemark \relax }}{43}{figure.caption.21}}
\pp@pagectr{footnote}{23}{44}{43}
\newlabel{komm_prosr}{{16}{43}{Просроченная задолженность физических лиц\protect \footnotemark \relax }{figure.caption.21}{}}
\citation{ved_bankrot}
\citation{rastut_riski}
\citation{cb_fin_stable}
\@writefile{toc}{\contentsline {section}{\numberline {2.3.}Меры Банка России по охлаждению рынка потребкредитования}{45}{section.2.3}}
\citation{cb_fin_stable}
\@writefile{lof}{\contentsline {figure}{\numberline {17}{\ignorespaces Объем и годовой темп прироста кредитного портфеля физических лиц в 2011–2013~годах\footnotemark \relax }}{46}{figure.caption.22}}
\pp@pagectr{footnote}{24}{47}{46}
\citation{cb_fin_stable}
\@writefile{lof}{\contentsline {figure}{\numberline {18}{\ignorespaces Годовые темпы прироста кредитов населению по сегментам кредитования\footnotemark \relax }}{47}{figure.caption.23}}
\pp@pagectr{footnote}{25}{48}{47}
\citation{cb_fin_stable}
\@writefile{lof}{\contentsline {figure}{\numberline {19}{\ignorespaces Объем и годовой темп прироста просроченной задолженности физических лиц\footnotemark \relax }}{48}{figure.caption.24}}
\pp@pagectr{footnote}{26}{49}{48}
\citation{cb_fin_stable}
\citation{bo_prognoz_cb}
\@writefile{lof}{\contentsline {figure}{\numberline {20}{\ignorespaces Динамика ссуд IV–V категории качества в абсолютных и относительных значениях\footnotemark \relax }}{49}{figure.caption.25}}
\pp@pagectr{footnote}{27}{50}{49}
\citation{rg_cb}
\citation{komm_cold}
\citation{komm_kredit}
\pp@pagectr{footnote}{28}{51}{50}
\citation{ved_dorogie_kredity}
\citation{ved_dorogie_kredity}
\@writefile{lot}{\contentsline {table}{\numberline {4}{\ignorespaces Кредиты со ставкой выше 25\%, выданные в июле 2013~г.\footnotemark \relax }}{51}{table.caption.26}}
\pp@pagectr{footnote}{29}{52}{51}
\newlabel{ved_dorogie_kredity}{{4}{51}{Кредиты со ставкой выше 25\%, выданные в июле 2013~г.\protect \footnotemark \relax }{table.caption.26}{}}
\pp@pagectr{footnote}{30}{52}{51}
\citation{ved_dorogie_kredity}
\citation{ved_politika_cb}
\@writefile{lof}{\contentsline {figure}{\numberline {21}{\ignorespaces Снижение достаточности капитала в июле 2013~г.\footnotemark \relax }}{52}{figure.caption.27}}
\pp@pagectr{footnote}{31}{53}{52}
\newlabel{ved_N1}{{21}{52}{Снижение достаточности капитала в июле 2013~г.\protect \footnotemark \relax }{figure.caption.27}{}}
\citation{brs_ifrs}
\citation{brs_emitent}
\@writefile{toc}{\contentsline {chapter}{\numberline {3.}Банк «Русский стандарт» на рынке потребительского кредитования}{53}{chapter.3}}
\@writefile{toc}{\contentsline {section}{\numberline {3.1.}Банк «Русский стандарт»: историческая справка}{53}{section.3.1}}
\citation{brs_ras}
\@writefile{toc}{\contentsline {section}{\numberline {3.2.}Характеристики бизнеса банка «Русский стандарт»}{55}{section.3.2}}
\@writefile{lof}{\contentsline {figure}{\numberline {22}{\ignorespaces Динамика активов БРС, млн. рублей\footnotemark \relax }}{55}{figure.caption.28}}
\pp@pagectr{footnote}{32}{56}{55}
\newlabel{brs_assets_hist}{{22}{55}{Динамика активов БРС, млн. рублей\protect \footnotemark \relax }{figure.caption.28}{}}
\citation{brs_ras}
\citation{brs_ras}
\@writefile{lot}{\contentsline {table}{\numberline {5}{\ignorespaces Активы БРС, млн. рублей\footnotemark \relax }}{56}{table.caption.29}}
\pp@pagectr{footnote}{33}{57}{56}
\newlabel{brs_assets_tab}{{5}{56}{Активы БРС, млн. рублей\protect \footnotemark \relax }{table.caption.29}{}}
\@writefile{lof}{\contentsline {figure}{\numberline {23}{\ignorespaces Структура активов БРС на 01.01.2013, млн. рублей\footnotemark \relax }}{56}{figure.caption.30}}
\pp@pagectr{footnote}{34}{57}{56}
\newlabel{brs_assets}{{23}{56}{Структура активов БРС на 01.01.2013, млн. рублей\protect \footnotemark \relax }{figure.caption.30}{}}
\citation{brs_ras}
\citation{brs_ras}
\citation{brs_ras}
\citation{ved_gabon}
\@writefile{lof}{\contentsline {figure}{\numberline {24}{\ignorespaces Динамика обязательств БРС, млн. рублей\footnotemark \relax }}{57}{figure.caption.31}}
\pp@pagectr{footnote}{35}{58}{57}
\newlabel{brs_liabilities_hist}{{24}{57}{Динамика обязательств БРС, млн. рублей\protect \footnotemark \relax }{figure.caption.31}{}}
\@writefile{lot}{\contentsline {table}{\numberline {6}{\ignorespaces Пассивы БРС, млн. рублей\footnotemark \relax }}{57}{table.caption.32}}
\pp@pagectr{footnote}{36}{58}{57}
\newlabel{brs_liabilities_tab}{{6}{57}{Пассивы БРС, млн. рублей\protect \footnotemark \relax }{table.caption.32}{}}
\citation{brs_emitent}
\citation{ved_brs}
\@writefile{lof}{\contentsline {figure}{\numberline {25}{\ignorespaces Структура обязательств БРС на 01.01.2013, млн. рублей\footnotemark \relax }}{58}{figure.caption.33}}
\pp@pagectr{footnote}{37}{59}{58}
\newlabel{brs_liabilities}{{25}{58}{Структура обязательств БРС на 01.01.2013, млн. рублей\protect \footnotemark \relax }{figure.caption.33}{}}
\pp@pagectr{footnote}{38}{59}{58}
\pp@pagectr{footnote}{39}{59}{58}
\citation{brs_ras}
\@writefile{lot}{\contentsline {table}{\numberline {7}{\ignorespaces Ключевые показатели БРС\footnotemark \relax }}{59}{table.caption.34}}
\pp@pagectr{footnote}{40}{60}{59}
\newlabel{brs_kpi}{{7}{59}{Ключевые показатели БРС\protect \footnotemark \relax }{table.caption.34}{}}
\citation{brs_ifrs}
\citation{brs_ifrs}
\@writefile{lof}{\contentsline {figure}{\numberline {26}{\ignorespaces Структура розничного портфеля БРС по данным МСФО на 1~июля 2013~года, млн. рублей\footnotemark \relax }}{60}{figure.caption.35}}
\pp@pagectr{footnote}{41}{61}{60}
\newlabel{brs_portfolio}{{26}{60}{Структура розничного портфеля БРС по данным МСФО на 1~июля 2013~года, млн. рублей\protect \footnotemark \relax }{figure.caption.35}{}}
\@writefile{lot}{\contentsline {table}{\numberline {8}{\ignorespaces Портфель и резервы БРС по МСФО на 1~июля 2013~года\footnotemark \relax }}{60}{table.caption.36}}
\pp@pagectr{footnote}{42}{61}{60}
\newlabel{tab:brs_provision}{{8}{60}{Портфель и резервы БРС по МСФО на 1~июля 2013~года\protect \footnotemark \relax }{table.caption.36}{}}
\citation{brs_ifrs}
\citation{ved_brs}
\@writefile{toc}{\contentsline {section}{\numberline {3.3.}Анализ рисков банка «Русский стандарт»}{61}{section.3.3}}
\citation{rol_kredita}
\citation{ved_sber}
\citation{brs_ifrs}
\citation{lenta_cb}
\@writefile{toc}{\contentsline {section}{\numberline {3.4.}Меры по снижению выявленных рисков}{65}{section.3.4}}
\@writefile{toc}{\contentsline {chapter}{Заключение}{69}{chapter*.37}}
\citation{rol_kredita}
\citation{*}
\bibdata{diploma}
\bibcite{law_bank}{1}
\bibcite{law_prav_potreb}{2}
\bibcite{law_bki}{3}
\bibcite{law_bankrot}{4}
\bibcite{law_ombudsman}{5}
\bibcite{law_potreb}{6}
\bibcite{law_clarification}{7}
\bibcite{lavrushin}{8}
\@writefile{toc}{\contentsline {chapter}{Список литературы}{74}{section*.38}}
\select@language {russian}
\@writefile{toc}{\select@language {russian}}
\@writefile{lof}{\select@language {russian}}
\@writefile{lot}{\select@language {russian}}
\select@language {russian}
\@writefile{toc}{\select@language {russian}}
\@writefile{lof}{\select@language {russian}}
\@writefile{lot}{\select@language {russian}}
\select@language {russian}
\@writefile{toc}{\select@language {russian}}
\@writefile{lof}{\select@language {russian}}
\@writefile{lot}{\select@language {russian}}
\select@language {russian}
\@writefile{toc}{\select@language {russian}}
\@writefile{lof}{\select@language {russian}}
\@writefile{lot}{\select@language {russian}}
\select@language {russian}
\@writefile{toc}{\select@language {russian}}
\@writefile{lof}{\select@language {russian}}
\@writefile{lot}{\select@language {russian}}
\select@language {russian}
\@writefile{toc}{\select@language {russian}}
\@writefile{lof}{\select@language {russian}}
\@writefile{lot}{\select@language {russian}}
\select@language {russian}
\@writefile{toc}{\select@language {russian}}
\@writefile{lof}{\select@language {russian}}
\@writefile{lot}{\select@language {russian}}
\select@language {russian}
\@writefile{toc}{\select@language {russian}}
\@writefile{lof}{\select@language {russian}}
\@writefile{lot}{\select@language {russian}}
\bibcite{kulikov}{9}
\bibcite{rol_kredita}{10}
\bibcite{bd_berezina}{11}
\bibcite{br_tend}{12}
\bibcite{komm_cold}{13}
\bibcite{ved_brs}{14}
\bibcite{ved_auto}{15}
\bibcite{ved_pos}{16}
\bibcite{ved_gabon}{17}
\bibcite{komm_pos}{18}
\select@language {russian}
\@writefile{toc}{\select@language {russian}}
\@writefile{lof}{\select@language {russian}}
\@writefile{lot}{\select@language {russian}}
\select@language {russian}
\@writefile{toc}{\select@language {russian}}
\@writefile{lof}{\select@language {russian}}
\@writefile{lot}{\select@language {russian}}
\select@language {russian}
\@writefile{toc}{\select@language {russian}}
\@writefile{lof}{\select@language {russian}}
\@writefile{lot}{\select@language {russian}}
\select@language {russian}
\@writefile{toc}{\select@language {russian}}
\@writefile{lof}{\select@language {russian}}
\@writefile{lot}{\select@language {russian}}
\select@language {russian}
\@writefile{toc}{\select@language {russian}}
\@writefile{lof}{\select@language {russian}}
\@writefile{lot}{\select@language {russian}}
\select@language {russian}
\@writefile{toc}{\select@language {russian}}
\@writefile{lof}{\select@language {russian}}
\@writefile{lot}{\select@language {russian}}
\select@language {russian}
\@writefile{toc}{\select@language {russian}}
\@writefile{lof}{\select@language {russian}}
\@writefile{lot}{\select@language {russian}}
\select@language {russian}
\@writefile{toc}{\select@language {russian}}
\@writefile{lof}{\select@language {russian}}
\@writefile{lot}{\select@language {russian}}
\select@language {russian}
\@writefile{toc}{\select@language {russian}}
\@writefile{lof}{\select@language {russian}}
\@writefile{lot}{\select@language {russian}}
\bibcite{potreb_pravo}{19}
\bibcite{ved_dorogie_kredity}{20}
\bibcite{ved_svaznoy}{21}
\bibcite{rg_ipoteka}{22}
\bibcite{rg_cb}{23}
\bibcite{bd_market}{24}
\bibcite{rg_rost}{25}
\bibcite{expert_procent}{26}
\bibcite{komm_kredit}{27}
\bibcite{bo_prognoz_cb}{28}
\select@language {russian}
\@writefile{toc}{\select@language {russian}}
\@writefile{lof}{\select@language {russian}}
\@writefile{lot}{\select@language {russian}}
\select@language {russian}
\@writefile{toc}{\select@language {russian}}
\@writefile{lof}{\select@language {russian}}
\@writefile{lot}{\select@language {russian}}
\select@language {russian}
\@writefile{toc}{\select@language {russian}}
\@writefile{lof}{\select@language {russian}}
\@writefile{lot}{\select@language {russian}}
\select@language {russian}
\@writefile{toc}{\select@language {russian}}
\@writefile{lof}{\select@language {russian}}
\@writefile{lot}{\select@language {russian}}
\select@language {russian}
\@writefile{toc}{\select@language {russian}}
\@writefile{lof}{\select@language {russian}}
\@writefile{lot}{\select@language {russian}}
\select@language {russian}
\@writefile{toc}{\select@language {russian}}
\@writefile{lof}{\select@language {russian}}
\@writefile{lot}{\select@language {russian}}
\select@language {russian}
\@writefile{toc}{\select@language {russian}}
\@writefile{lof}{\select@language {russian}}
\@writefile{lot}{\select@language {russian}}
\select@language {russian}
\@writefile{toc}{\select@language {russian}}
\@writefile{lof}{\select@language {russian}}
\@writefile{lot}{\select@language {russian}}
\select@language {russian}
\@writefile{toc}{\select@language {russian}}
\@writefile{lof}{\select@language {russian}}
\@writefile{lot}{\select@language {russian}}
\select@language {russian}
\@writefile{toc}{\select@language {russian}}
\@writefile{lof}{\select@language {russian}}
\@writefile{lot}{\select@language {russian}}
\bibcite{kred_doveria}{29}
\bibcite{bb_dogovor}{30}
\bibcite{rastut_riski}{31}
\bibcite{bo_law}{32}
\bibcite{expert_potreb}{33}
\bibcite{brs_ras}{34}
\bibcite{expert_bank}{35}
\bibcite{brs_emitent}{36}
\bibcite{brs_ifrs}{37}
\select@language {russian}
\@writefile{toc}{\select@language {russian}}
\@writefile{lof}{\select@language {russian}}
\@writefile{lot}{\select@language {russian}}
\select@language {russian}
\@writefile{toc}{\select@language {russian}}
\@writefile{lof}{\select@language {russian}}
\@writefile{lot}{\select@language {russian}}
\select@language {russian}
\@writefile{toc}{\select@language {russian}}
\@writefile{lof}{\select@language {russian}}
\@writefile{lot}{\select@language {russian}}
\select@language {russian}
\@writefile{toc}{\select@language {russian}}
\@writefile{lof}{\select@language {russian}}
\@writefile{lot}{\select@language {russian}}
\select@language {russian}
\@writefile{toc}{\select@language {russian}}
\@writefile{lof}{\select@language {russian}}
\@writefile{lot}{\select@language {russian}}
\select@language {russian}
\@writefile{toc}{\select@language {russian}}
\@writefile{lof}{\select@language {russian}}
\@writefile{lot}{\select@language {russian}}
\select@language {russian}
\@writefile{toc}{\select@language {russian}}
\@writefile{lof}{\select@language {russian}}
\@writefile{lot}{\select@language {russian}}
\select@language {russian}
\@writefile{toc}{\select@language {russian}}
\@writefile{lof}{\select@language {russian}}
\@writefile{lot}{\select@language {russian}}
\select@language {russian}
\@writefile{toc}{\select@language {russian}}
\@writefile{lof}{\select@language {russian}}
\@writefile{lot}{\select@language {russian}}
\select@language {russian}
\@writefile{toc}{\select@language {russian}}
\@writefile{lof}{\select@language {russian}}
\@writefile{lot}{\select@language {russian}}
\bibcite{cb_fin_stable}{38}
\bibcite{cbr_ru}{39}
\bibcite{banki_ru}{40}
\bibcite{tks_card}{41}
\bibcite{sinki}{42}
\bibcite{assoc_reg}{43}
\bibcite{slon_cb}{44}
\bibcite{pravo_bankrot}{45}
\bibcite{ved_sber}{46}
\select@language {russian}
\@writefile{toc}{\select@language {russian}}
\@writefile{lof}{\select@language {russian}}
\@writefile{lot}{\select@language {russian}}
\select@language {russian}
\@writefile{toc}{\select@language {russian}}
\@writefile{lof}{\select@language {russian}}
\@writefile{lot}{\select@language {russian}}
\select@language {russian}
\@writefile{toc}{\select@language {russian}}
\@writefile{lof}{\select@language {russian}}
\@writefile{lot}{\select@language {russian}}
\select@language {russian}
\@writefile{toc}{\select@language {russian}}
\@writefile{lof}{\select@language {russian}}
\@writefile{lot}{\select@language {russian}}
\select@language {russian}
\@writefile{toc}{\select@language {russian}}
\@writefile{lof}{\select@language {russian}}
\@writefile{lot}{\select@language {russian}}
\select@language {russian}
\@writefile{toc}{\select@language {russian}}
\@writefile{lof}{\select@language {russian}}
\@writefile{lot}{\select@language {russian}}
\select@language {russian}
\@writefile{toc}{\select@language {russian}}
\@writefile{lof}{\select@language {russian}}
\@writefile{lot}{\select@language {russian}}
\select@language {russian}
\@writefile{toc}{\select@language {russian}}
\@writefile{lof}{\select@language {russian}}
\@writefile{lot}{\select@language {russian}}
\bibcite{banki_gigant}{47}
\bibcite{banki_law_2013}{48}
\bibcite{finmarket_alpha}{49}
\bibcite{bo_pos}{50}
\bibcite{ved_bankrot}{51}
\bibcite{ved_politika_cb}{52}
\bibcite{bo_nbki}{53}
\select@language {russian}
\@writefile{toc}{\select@language {russian}}
\@writefile{lof}{\select@language {russian}}
\@writefile{lot}{\select@language {russian}}
\select@language {russian}
\@writefile{toc}{\select@language {russian}}
\@writefile{lof}{\select@language {russian}}
\@writefile{lot}{\select@language {russian}}
\select@language {russian}
\@writefile{toc}{\select@language {russian}}
\@writefile{lof}{\select@language {russian}}
\@writefile{lot}{\select@language {russian}}
\select@language {russian}
\@writefile{toc}{\select@language {russian}}
\@writefile{lof}{\select@language {russian}}
\@writefile{lot}{\select@language {russian}}
\select@language {russian}
\@writefile{toc}{\select@language {russian}}
\@writefile{lof}{\select@language {russian}}
\@writefile{lot}{\select@language {russian}}
\select@language {russian}
\@writefile{toc}{\select@language {russian}}
\@writefile{lof}{\select@language {russian}}
\@writefile{lot}{\select@language {russian}}
\select@language {russian}
\@writefile{toc}{\select@language {russian}}
\@writefile{lof}{\select@language {russian}}
\@writefile{lot}{\select@language {russian}}
\select@language {russian}
\@writefile{toc}{\select@language {russian}}
\@writefile{lof}{\select@language {russian}}
\@writefile{lot}{\select@language {russian}}
\bibcite{bo_nbki_expert}{54}
\bibcite{rbc_ipoteka}{55}
\bibcite{gazeta_ombudsman}{56}
\bibcite{lenta_cb}{57}
\select@language {russian}
\@writefile{toc}{\select@language {russian}}
\@writefile{lof}{\select@language {russian}}
\@writefile{lot}{\select@language {russian}}
\select@language {russian}
\@writefile{toc}{\select@language {russian}}
\@writefile{lof}{\select@language {russian}}
\@writefile{lot}{\select@language {russian}}
\select@language {russian}
\@writefile{toc}{\select@language {russian}}
\@writefile{lof}{\select@language {russian}}
\@writefile{lot}{\select@language {russian}}
\select@language {russian}
\@writefile{toc}{\select@language {russian}}
\@writefile{lof}{\select@language {russian}}
\@writefile{lot}{\select@language {russian}}
\select@language {russian}
\@writefile{toc}{\select@language {russian}}
\@writefile{lof}{\select@language {russian}}
\@writefile{lot}{\select@language {russian}}
\select@language {russian}
\@writefile{toc}{\select@language {russian}}
\@writefile{lof}{\select@language {russian}}
\@writefile{lot}{\select@language {russian}}
\select@language {russian}
\@writefile{toc}{\select@language {russian}}
\@writefile{lof}{\select@language {russian}}
\@writefile{lot}{\select@language {russian}}
\select@language {russian}
\@writefile{toc}{\select@language {russian}}
\@writefile{lof}{\select@language {russian}}
\@writefile{lot}{\select@language {russian}}
\select@language {russian}
\@writefile{toc}{\select@language {russian}}
\@writefile{lof}{\select@language {russian}}
\@writefile{lot}{\select@language {russian}}
\select@language {russian}
\@writefile{toc}{\select@language {russian}}
\@writefile{lof}{\select@language {russian}}
\@writefile{lot}{\select@language {russian}}
\select@language {russian}
\@writefile{toc}{\select@language {russian}}
\@writefile{lof}{\select@language {russian}}
\@writefile{lot}{\select@language {russian}}
\select@language {russian}
\@writefile{toc}{\select@language {russian}}
\@writefile{lof}{\select@language {russian}}
\@writefile{lot}{\select@language {russian}}
\select@language {russian}
\@writefile{toc}{\select@language {russian}}
\@writefile{lof}{\select@language {russian}}
\@writefile{lot}{\select@language {russian}}
\select@language {russian}
\@writefile{toc}{\select@language {russian}}
\@writefile{lof}{\select@language {russian}}
\@writefile{lot}{\select@language {russian}}
\select@language {russian}
\@writefile{toc}{\select@language {russian}}
\@writefile{lof}{\select@language {russian}}
\@writefile{lot}{\select@language {russian}}
\select@language {russian}
\@writefile{toc}{\select@language {russian}}
\@writefile{lof}{\select@language {russian}}
\@writefile{lot}{\select@language {russian}}
\select@language {russian}
\@writefile{toc}{\select@language {russian}}
\@writefile{lof}{\select@language {russian}}
\@writefile{lot}{\select@language {russian}}
\select@language {russian}
\@writefile{toc}{\select@language {russian}}
\@writefile{lof}{\select@language {russian}}
\@writefile{lot}{\select@language {russian}}
\select@language {russian}
\@writefile{toc}{\select@language {russian}}
\@writefile{lof}{\select@language {russian}}
\@writefile{lot}{\select@language {russian}}
\select@language {russian}
\@writefile{toc}{\select@language {russian}}
\@writefile{lof}{\select@language {russian}}
\@writefile{lot}{\select@language {russian}}
\select@language {russian}
\@writefile{toc}{\select@language {russian}}
\@writefile{lof}{\select@language {russian}}
\@writefile{lot}{\select@language {russian}}
\select@language {russian}
\@writefile{toc}{\select@language {russian}}
\@writefile{lof}{\select@language {russian}}
\@writefile{lot}{\select@language {russian}}
\select@language {russian}
\@writefile{toc}{\select@language {russian}}
\@writefile{lof}{\select@language {russian}}
\@writefile{lot}{\select@language {russian}}
\select@language {russian}
\@writefile{toc}{\select@language {russian}}
\@writefile{lof}{\select@language {russian}}
\@writefile{lot}{\select@language {russian}}
\select@language {russian}
\@writefile{toc}{\select@language {russian}}
\@writefile{lof}{\select@language {russian}}
\@writefile{lot}{\select@language {russian}}
\select@language {russian}
\@writefile{toc}{\select@language {russian}}
\@writefile{lof}{\select@language {russian}}
\@writefile{lot}{\select@language {russian}}
\select@language {russian}
\@writefile{toc}{\select@language {russian}}
\@writefile{lof}{\select@language {russian}}
\@writefile{lot}{\select@language {russian}}
\select@language {russian}
\@writefile{toc}{\select@language {russian}}
\@writefile{lof}{\select@language {russian}}
\@writefile{lot}{\select@language {russian}}
\select@language {russian}
\@writefile{toc}{\select@language {russian}}
\@writefile{lof}{\select@language {russian}}
\@writefile{lot}{\select@language {russian}}
\select@language {russian}
\@writefile{toc}{\select@language {russian}}
\@writefile{lof}{\select@language {russian}}
\@writefile{lot}{\select@language {russian}}
\select@language {russian}
\@writefile{toc}{\select@language {russian}}
\@writefile{lof}{\select@language {russian}}
\@writefile{lot}{\select@language {russian}}
\select@language {russian}
\@writefile{toc}{\select@language {russian}}
\@writefile{lof}{\select@language {russian}}
\@writefile{lot}{\select@language {russian}}
\select@language {russian}
\@writefile{toc}{\select@language {russian}}
\@writefile{lof}{\select@language {russian}}
\@writefile{lot}{\select@language {russian}}
\select@language {russian}
\@writefile{toc}{\select@language {russian}}
\@writefile{lof}{\select@language {russian}}
\@writefile{lot}{\select@language {russian}}
\select@language {russian}
\@writefile{toc}{\select@language {russian}}
\@writefile{lof}{\select@language {russian}}
\@writefile{lot}{\select@language {russian}}
\select@language {russian}
\@writefile{toc}{\select@language {russian}}
\@writefile{lof}{\select@language {russian}}
\@writefile{lot}{\select@language {russian}}
\select@language {russian}
\@writefile{toc}{\select@language {russian}}
\@writefile{lof}{\select@language {russian}}
\@writefile{lot}{\select@language {russian}}
\select@language {russian}
\@writefile{toc}{\select@language {russian}}
\@writefile{lof}{\select@language {russian}}
\@writefile{lot}{\select@language {russian}}
\select@language {russian}
\@writefile{toc}{\select@language {russian}}
\@writefile{lof}{\select@language {russian}}
\@writefile{lot}{\select@language {russian}}
\select@language {russian}
\@writefile{toc}{\select@language {russian}}
\@writefile{lof}{\select@language {russian}}
\@writefile{lot}{\select@language {russian}}
\select@language {russian}
\@writefile{toc}{\select@language {russian}}
\@writefile{lof}{\select@language {russian}}
\@writefile{lot}{\select@language {russian}}
\select@language {russian}
\@writefile{toc}{\select@language {russian}}
\@writefile{lof}{\select@language {russian}}
\@writefile{lot}{\select@language {russian}}
\select@language {russian}
\@writefile{toc}{\select@language {russian}}
\@writefile{lof}{\select@language {russian}}
\@writefile{lot}{\select@language {russian}}
\select@language {russian}
\@writefile{toc}{\select@language {russian}}
\@writefile{lof}{\select@language {russian}}
\@writefile{lot}{\select@language {russian}}
\select@language {russian}
\@writefile{toc}{\select@language {russian}}
\@writefile{lof}{\select@language {russian}}
\@writefile{lot}{\select@language {russian}}
\select@language {russian}
\@writefile{toc}{\select@language {russian}}
\@writefile{lof}{\select@language {russian}}
\@writefile{lot}{\select@language {russian}}
\select@language {russian}
\@writefile{toc}{\select@language {russian}}
\@writefile{lof}{\select@language {russian}}
\@writefile{lot}{\select@language {russian}}
\select@language {russian}
\@writefile{toc}{\select@language {russian}}
\@writefile{lof}{\select@language {russian}}
\@writefile{lot}{\select@language {russian}}
\select@language {russian}
\@writefile{toc}{\select@language {russian}}
\@writefile{lof}{\select@language {russian}}
\@writefile{lot}{\select@language {russian}}
\select@language {russian}
\@writefile{toc}{\select@language {russian}}
\@writefile{lof}{\select@language {russian}}
\@writefile{lot}{\select@language {russian}}
\select@language {russian}
\@writefile{toc}{\select@language {russian}}
\@writefile{lof}{\select@language {russian}}
\@writefile{lot}{\select@language {russian}}
\select@language {russian}
\@writefile{toc}{\select@language {russian}}
\@writefile{lof}{\select@language {russian}}
\@writefile{lot}{\select@language {russian}}
\select@language {russian}
\@writefile{toc}{\select@language {russian}}
\@writefile{lof}{\select@language {russian}}
\@writefile{lot}{\select@language {russian}}
\select@language {russian}
\@writefile{toc}{\select@language {russian}}
\@writefile{lof}{\select@language {russian}}
\@writefile{lot}{\select@language {russian}}
\select@language {russian}
\@writefile{toc}{\select@language {russian}}
\@writefile{lof}{\select@language {russian}}
\@writefile{lot}{\select@language {russian}}
\select@language {russian}
\@writefile{toc}{\select@language {russian}}
\@writefile{lof}{\select@language {russian}}
\@writefile{lot}{\select@language {russian}}
\select@language {russian}
\@writefile{toc}{\select@language {russian}}
\@writefile{lof}{\select@language {russian}}
\@writefile{lot}{\select@language {russian}}
\select@language {russian}
\@writefile{toc}{\select@language {russian}}
\@writefile{lof}{\select@language {russian}}
\@writefile{lot}{\select@language {russian}}
\select@language {russian}
\@writefile{toc}{\select@language {russian}}
\@writefile{lof}{\select@language {russian}}
\@writefile{lot}{\select@language {russian}}
\select@language {russian}
\@writefile{toc}{\select@language {russian}}
\@writefile{lof}{\select@language {russian}}
\@writefile{lot}{\select@language {russian}}
\select@language {russian}
\@writefile{toc}{\select@language {russian}}
\@writefile{lof}{\select@language {russian}}
\@writefile{lot}{\select@language {russian}}
\citation{banki_ru}
\@writefile{toc}{\contentsline {chapter}{Приложения}{81}{appendix*.40}}
\@writefile{toc}{\contentsline {section}{\numberline {1.}Рейтинг банков по размеру портфеля кредитов физическим лицам}{81}{section.Alph0.1}}
\newlabel{sec:top15_banks}{{1.}{81}{Рейтинг банков по размеру портфеля кредитов физическим лицам}{section.Alph0.1}{}}
\newlabel{tab:top15_banks}{{\caption@xref {tab:top15_banks}{ on input line 11}}{81}{Рейтинг банков по размеру портфеля кредитов физическим лицам}{table.caption.41}{}}
\@writefile{lot}{\contentsline {table}{\numberline {9}{\ignorespaces Топ-15 банков по объему портфеля кредитов физическим лицам на 01.07.2013\footnotemark \relax }}{81}{table.caption.41}}
\pp@pagectr{footnote}{43}{82}{81}
\citation{tks_card}
\@writefile{toc}{\contentsline {section}{\numberline {2.}Показатели роста портфеля кредитных карт по основным участникам рынка}{82}{section.Alph0.2}}
\newlabel{sec:tks_market}{{2.}{82}{Показатели роста портфеля кредитных карт по основным участникам рынка}{section.Alph0.2}{}}
\newlabel{tab:tks_market}{{\caption@xref {tab:tks_market}{ on input line 24}}{82}{Показатели роста портфеля кредитных карт по основным участникам рынка}{table.caption.42}{}}
\@writefile{lot}{\contentsline {table}{\numberline {10}{\ignorespaces Динамика портфелей кредитных карт на 01.07.2013, млрд. рублей\footnotemark \relax }}{82}{table.caption.42}}
\pp@pagectr{footnote}{44}{83}{82}
